<?xml version="1.0" encoding="UTF-8"?><svg xmlns="http://www.w3.org/2000/svg" xmlns:xlink="http://www.w3.org/1999/xlink" stroke-dasharray="none" shape-rendering="auto" font-family="'Dialog'" width="161" text-rendering="auto" fill-opacity="1" contentScriptType="text/ecmascript" color-interpolation="auto" color-rendering="auto" preserveAspectRatio="xMidYMid meet" font-size="12" viewBox="0 0 161 234" fill="black" stroke="black" image-rendering="auto" stroke-miterlimit="10" zoomAndPan="magnify" version="1.0" stroke-linecap="square" stroke-linejoin="miter" contentStyleType="text/css" font-style="normal" height="234" stroke-width="1" stroke-dashoffset="0" font-weight="normal" stroke-opacity="1">
<!--Generated by the Batik Graphics2D SVG Generator-->
<defs id="genericDefs"/>
<g>
<defs id="defs1">
<linearGradient x1="16" x2="16" y1="10" gradientUnits="userSpaceOnUse" y2="111" xlink:type="simple" xlink:actuate="onLoad" id="linearGradient1" xlink:show="other" spreadMethod="pad">
<stop stop-opacity="1" stop-color="white" offset="0%"/>
<stop stop-opacity="1" stop-color="rgb(195,209,213)" offset="100%"/>
</linearGradient>
<linearGradient x1="10" x2="10" y1="174" gradientUnits="userSpaceOnUse" y2="224" xlink:type="simple" xlink:actuate="onLoad" id="linearGradient2" xlink:show="other" spreadMethod="pad">
<stop stop-opacity="1" stop-color="white" offset="0%"/>
<stop stop-opacity="1" stop-color="rgb(195,215,221)" offset="100%"/>
</linearGradient>
<clipPath clipPathUnits="userSpaceOnUse" id="clipPath1">
<path d="M16 10 L16 110 L150 110 L150 10 Z"/>
</clipPath>
<clipPath clipPathUnits="userSpaceOnUse" id="clipPath2">
<path d="M42 12 L127 12 L127 28 L42 28 L42 12 Z"/>
</clipPath>
<clipPath clipPathUnits="userSpaceOnUse" id="clipPath3">
<path d="M42 27 L126 27 L126 43 L42 43 L42 27 Z"/>
</clipPath>
<clipPath clipPathUnits="userSpaceOnUse" id="clipPath4">
<path d="M21 44 L148 44 L148 62 L21 62 L21 44 Z"/>
</clipPath>
<clipPath clipPathUnits="userSpaceOnUse" id="clipPath5">
<path d="M40 45 L148 45 L148 61 L40 61 L40 45 Z"/>
</clipPath>
<clipPath clipPathUnits="userSpaceOnUse" id="clipPath6">
<path d="M16 42 L152 42 L152 82 L16 82 L16 42 Z"/>
</clipPath>
<clipPath clipPathUnits="userSpaceOnUse" id="clipPath7">
<path d="M16 81 L152 81 L152 112 L16 112 L16 81 Z"/>
</clipPath>
<clipPath clipPathUnits="userSpaceOnUse" id="clipPath8">
<path d="M15 9 L152 9 L152 112 L15 112 L15 9 Z"/>
</clipPath>
<clipPath clipPathUnits="userSpaceOnUse" id="clipPath9">
<path d="M10 174 L10 223 L109 223 L109 174 Z"/>
</clipPath>
<clipPath clipPathUnits="userSpaceOnUse" id="clipPath10">
<path d="M21 184 L100 184 L100 200 L21 200 L21 184 Z"/>
</clipPath>
<clipPath clipPathUnits="userSpaceOnUse" id="clipPath11">
<path d="M30 199 L91 199 L91 215 L30 215 L30 199 Z"/>
</clipPath>
<clipPath clipPathUnits="userSpaceOnUse" id="clipPath12">
<path d="M9 173 L111 173 L111 225 L9 225 L9 173 Z"/>
</clipPath>
<clipPath clipPathUnits="userSpaceOnUse" id="clipPath13">
<path d="M-1 -1 L162 -1 L162 235 L-1 235 L-1 -1 Z"/>
</clipPath>
<clipPath clipPathUnits="userSpaceOnUse" id="clipPath14">
<path d="M70 158 L83 158 L83 176 L70 176 L70 158 Z"/>
</clipPath>
</defs>
<g font-size="13" fill="url(#linearGradient1)" font-family="'Noto Sans'" stroke-linejoin="round" stroke="url(#linearGradient1)" stroke-width="0" stroke-miterlimit="0">
<rect x="16" y="10" clip-path="url(#clipPath1)" width="135" height="101" stroke="none"/>
</g>
<g stroke-miterlimit="0" stroke-width="0" stroke-linejoin="round">
<text xml:space="preserve" x="43" y="25" clip-path="url(#clipPath2)" stroke="none">«Stereotype»</text>
<text xml:space="preserve" x="43" y="40" clip-path="url(#clipPath3)" stroke="none">TagValuePair</text>
<image x="22" y="45" clip-path="url(#clipPath4)" width="16" xlink:href="data:image/png;base64,iVBORw0KGgoAAAANSUhEUgAAABAAAAAQCAYAAAAf8/9hAAABHklEQVR42mNgGAWM&#10;ICJr1qH/pGqclmYH1ssCIn7/+ccwI8OeaM0ZMw/C2WADfgIN+At0Q8rUfRDR/zC3&#10;obGBYE62E8Ov339RDfjx6w/DHyjdne2G0+aSqbsZ/gAN/I5kABOI+P4TaMA/EA2R&#10;EGSBYlYELcfBwLCq2JWBk5mBYWWRK8N/IIC74BvQ5l9A7rfff8AG/P4PcTmIYIR5&#10;A6iRrckLbvOvum0IL3z/9Res6fuPPwyRTetRnH20LRCFn2OgwzDlwhVI8AABxACg&#10;zaBAXNkQyMCIFmgggGwzuhjYAFCoupWvRDgXKZVcmRAOtxnZFSAAcgnYgKsTIxhx&#10;Bv2E8P8wxSBgJ63McOjpXdRoJARgAYYtEBmJTX2gAMNmAAC8fn+eU+XlTAAAAABJRU5ErkJggg==" xlink:type="simple" xlink:actuate="onLoad" height="16" preserveAspectRatio="none" xlink:show="embed"/>
<text xml:space="preserve" x="41" y="58" clip-path="url(#clipPath5)" stroke="none"> + tag: String [1]</text>
</g>
<g stroke-width="1.1" font-size="13" font-family="'Noto Sans'" stroke-linecap="butt">
<line clip-path="url(#clipPath6)" fill="none" x1="16" x2="151" y1="43" y2="43"/>
<line clip-path="url(#clipPath7)" fill="none" x1="16" x2="151" y1="82" y2="82"/>
<rect x="16" y="10" clip-path="url(#clipPath8)" fill="none" width="134" rx="0" ry="0" height="100"/>
<rect x="10" y="174" clip-path="url(#clipPath9)" fill="url(#linearGradient2)" width="100" height="50" stroke="none"/>
<text x="22" font-size="12" y="197" clip-path="url(#clipPath10)" font-family="'Dialog'" stroke="none" xml:space="preserve">«Metaclass»</text>
<text x="31" font-size="12" y="212" clip-path="url(#clipPath11)" font-family="'Dialog'" stroke="none" xml:space="preserve">Comment</text>
<rect x="10" y="174" clip-path="url(#clipPath12)" fill="none" width="99" rx="0" ry="0" height="49"/>
<line clip-path="url(#clipPath13)" fill="none" text-rendering="optimizeLegibility" x1="97" x2="97" y1="111" y2="130"/>
<line clip-path="url(#clipPath13)" fill="none" text-rendering="optimizeLegibility" x1="97" x2="76" y1="130" y2="130"/>
<line clip-path="url(#clipPath13)" fill="none" text-rendering="optimizeLegibility" x1="76" x2="76" y1="130" y2="174"/>
<polygon text-rendering="optimizeLegibility" clip-path="url(#clipPath14)" points=" 76 174 71 159 81 159" stroke="none"/>
<polygon fill="none" text-rendering="optimizeLegibility" clip-path="url(#clipPath14)" points=" 76 174 71 159 81 159"/>
</g>
</g>
</svg>
